Chapter 2 Introduction | Licensing R
…
db %>%
  count(clean_license, sort = TRUE)

## # A tibble: 97 x 2
##    clean_license      n
##    <chr>          <int>
##  1 gpl2            7221
##  2 gpl3            3771
##  3 mit             1681
##  4 gpl              551
##  5 artistic2        490
##  6 gpl2gpl3         299
##  7 lgpl3            198
##  8 apachelicense2   190
##  9 cc0              134
## 10 bsd3clause       126
## # … with 87 more rows
…
## [1] 12486

(n_gpl / nrow(db)) * 100

## [1] 80.19268

How may licenses are used just once?

db %>%
  count(clean_license) %>%
  filter(n == 1)

## # A tibble: 32 x 2
##    clean_license             n
##    <chr>                 <int>
##  1 apachelicenseversion2     1
##  2 artistic2gpl2             1
##  3 ccbysa2                   1
##  4 cecill2gpl2               1
##  5 cpl                       1
##  6 cpl1                      1
##  7 eupl11                    1
##  8 eupl12                    1
##  9 freebsdgpl2               1
## 10 gpl1                      1
## # … with 22 more rows
…
